{
  "name": "KBD67MKIIRGBV3",
  "vendorProductId": 1262621222,
  "macros": ["", "", "", "", "", "", "", "", "", "", "", "", "", "", "", ""],
  "layers": [
    [
      "KC_GESC",
      "KC_1",
      "KC_2",
      "KC_3",
      "KC_4",
      "KC_5",
      "KC_6",
      "KC_7",
      "KC_8",
      "KC_9",
      "KC_0",
      "KC_MINS",
      "KC_EQL",
      "KC_BSPC",
      "LT(1,KC_HOME)",
      "KC_TAB",
      "KC_Q",
      "KC_W",
      "KC_E",
      "KC_R",
      "KC_T",
      "KC_Y",
      "KC_U",
      "KC_I",
      "KC_O",
      "KC_P",
      "KC_LBRC",
      "KC_RBRC",
      "KC_BSLS",
      "KC_PGUP",
      "MT(MOD_LGUI,KC_ESC)",
      "KC_A",
      "KC_S",
      "KC_D",
      "KC_F",
      "KC_G",
      "KC_H",
      "KC_J",
      "KC_K",
      "KC_L",
      "KC_SCLN",
      "MT(MOD_LCTL | MOD_RCTL,KC_QUOT)",
      "KC_NO",
      "KC_ENT",
      "KC_PGDN",
      "KC_LSFT",
      "KC_Z",
      "KC_X",
      "KC_C",
      "LT(3,KC_V)",
      "KC_B",
      "LT(3,KC_N)",
      "KC_M",
      "KC_COMM",
      "KC_DOT",
      "KC_SLSH",
      "KC_RSFT",
      "KC_NO",
      "KC_UP",
      "KC_END",
      "KC_LCTL",
      "KC_LGUI",
      "KC_LALT",
      "KC_NO",
      "KC_NO",
      "LT(2,KC_SPC)",
      "KC_NO",
      "KC_NO",
      "KC_RALT",
      "KC_NO",
      "KC_RCTL",
      "KC_LEFT",
      "KC_NO",
      "KC_DOWN",
      "KC_RGHT"
    ],
    [
      "KC_GESC",
      "KC_F1",
      "KC_F2",
      "KC_F3",
      "KC_F4",
      "KC_F5",
      "KC_F6",
      "KC_F7",
      "KC_F8",
      "KC_F9",
      "KC_F10",
      "KC_F11",
      "KC_F12",
      "KC_DEL",
      "KC_HOME",
      "KC_TRNS",
      "RGB_TOG",
      "RGB_MOD",
      "RGB_HUI",
      "RGB_HUD",
      "RGB_SAI",
      "RGB_SAD",
      "RGB_VAI",
      "RGB_VAD",
      "KC_TRNS",
      "KC_PSCR",
      "KC_SLCK",
      "KC_PAUS",
      "RESET",
      "KC_PGUP",
      "KC_TRNS",
      "RGB_SPI",
      "RGB_SPD",
      "KC_TRNS",
      "KC_TRNS",
      "KC_TRNS",
      "KC_LEFT",
      "KC_DOWN",
      "KC_UP",
      "KC_RGHT",
      "KC_TRNS",
      "KC_TRNS",
      "KC_NO",
      "KC_NO",
      "KC_PGDN",
      "KC_LSFT",
      "KC_TRNS",
      "KC_TRNS",
      "KC_TRNS",
      "KC_TRNS",
      "KC_TRNS",
      "KC_TRNS",
      "KC_TRNS",
      "KC_TRNS",
      "KC_TRNS",
      "KC_TRNS",
      "KC_TRNS",
      "KC_NO",
      "KC_VOLU",
      "KC_MUTE",
      "KC_TRNS",
      "KC_TRNS",
      "KC_TRNS",
      "KC_NO",
      "KC_NO",
      "KC_TRNS",
      "KC_NO",
      "KC_NO",
      "KC_TRNS",
      "KC_NO",
      "KC_TRNS",
      "KC_MPRV",
      "KC_NO",
      "KC_VOLD",
      "KC_MNXT"
    ],
    [
      "S(KC_GRV)",
      "KC_F1",
      "KC_F2",
      "KC_F3",
      "KC_F4",
      "KC_F5",
      "KC_F6",
      "KC_F7",
      "KC_F8",
      "KC_F9",
      "KC_F10",
      "KC_F11",
      "KC_F12",
      "KC_DEL",
      "KC_TRNS",
      "KC_TRNS",
      "KC_GRV",
      "KC_TRNS",
      "KC_BSLS",
      "S(KC_BSLS)",
      "KC_GRV",
      "KC_TRNS",
      "KC_BSLS",
      "S(KC_BSLS)",
      "KC_TRNS",
      "KC_TRNS",
      "KC_TRNS",
      "KC_TRNS",
      "KC_TRNS",
      "KC_TRNS",
      "KC_TRNS",
      "S(KC_6)",
      "KC_BSLS",
      "KC_QUOT",
      "S(KC_QUOT)",
      "S(KC_8)",
      "KC_LEFT",
      "KC_DOWN",
      "KC_UP",
      "KC_RGHT",
      "S(KC_4)",
      "KC_BSPC",
      "KC_NO",
      "KC_TRNS",
      "KC_TRNS",
      "KC_TRNS",
      "KC_TRNS",
      "KC_TRNS",
      "S(KC_MINS)",
      "KC_MINS",
      "S(KC_EQL)",
      "KC_EQL",
      "S(KC_9)",
      "S(KC_0)",
      "KC_TRNS",
      "KC_TRNS",
      "KC_TRNS",
      "KC_NO",
      "KC_MS_UP",
      "KC_TRNS",
      "KC_TRNS",
      "KC_TRNS",
      "KC_TRNS",
      "KC_NO",
      "KC_NO",
      "KC_TRNS",
      "KC_NO",
      "KC_NO",
      "KC_TRNS",
      "KC_NO",
      "KC_TRNS",
      "KC_MS_LEFT",
      "KC_NO",
      "KC_MS_DOWN",
      "KC_MS_RIGHT"
    ],
    [
      "S(KC_GRV)",
      "KC_F1",
      "KC_F2",
      "KC_F3",
      "KC_F4",
      "KC_F5",
      "KC_F6",
      "KC_F7",
      "KC_F8",
      "KC_F9",
      "KC_F10",
      "KC_F11",
      "KC_F12",
      "KC_DEL",
      "KC_TRNS",
      "KC_TRNS",
      "KC_GRV",
      "KC_TRNS",
      "KC_BSLS",
      "S(KC_BSLS)",
      "KC_GRV",
      "KC_TRNS",
      "KC_BSLS",
      "S(KC_BSLS)",
      "KC_TRNS",
      "S(KC_5)",
      "KC_TRNS",
      "KC_TRNS",
      "KC_TRNS",
      "KC_TRNS",
      "KC_TRNS",
      "KC_BSPC",
      "KC_SLSH",
      "KC_LBRC",
      "KC_RBRC",
      "S(KC_8)",
      "S(KC_3)",
      "S(KC_COMM)",
      "S(KC_DOT)",
      "KC_BSPC",
      "KC_BSPC",
      "KC_ENT",
      "KC_NO",
      "KC_ENT",
      "KC_TRNS",
      "KC_TRNS",
      "KC_TRNS",
      "S(KC_LBRC)",
      "S(KC_RBRC)",
      "KC_TRNS",
      "KC_TRNS",
      "KC_TRNS",
      "S(KC_5)",
      "KC_EQL",
      "KC_TRNS",
      "KC_TRNS",
      "KC_TRNS",
      "KC_NO",
      "KC_TRNS",
      "KC_TRNS",
      "KC_TRNS",
      "KC_TRNS",
      "KC_TRNS",
      "KC_NO",
      "KC_NO",
      "KC_TRNS",
      "KC_NO",
      "KC_NO",
      "KC_TRNS",
      "KC_NO",
      "KC_TRNS",
      "KC_TRNS",
      "KC_NO",
      "KC_TRNS",
      "KC_TRNS"
    ]
  ],
  "encoders": []
}